,wint,wext,wtotal,vel,gait,subject
0,0.3712948383525556,1.5096397612940045,1.88093459964656,1.81,R,AG
1,0.4246113518018196,1.286659165680885,1.7112705174827045,2.5,R,AG
2,0.4815871328207028,1.0861929681636728,1.5677801009843757,3.06,R,AG
3,0.4563183578282593,1.1900718806739738,1.646390238502233,1.81,S,AG
4,0.5768357875852601,1.1845270270760284,1.7613628146612885,2.5,S,AG
5,0.20091764639744478,0.2529037327940139,0.4538213791914587,0.83,W,AG
6,0.23139156183453452,0.2562127916573099,0.48760435349184444,1.11,W,AG
7,0.25476343550643765,0.2614358321430075,0.5161992676494451,1.39,W,AG
8,0.348491023422113,0.25716468294569866,0.6056557063678116,1.81,W,AG
9,0.31709471570401726,1.3032296115798678,1.620324327283885,1.81,R,AL
10,0.41532115282443777,1.3077722656609512,1.723093418485389,2.5,R,AL
11,0.6308083321030564,1.0148990020811322,1.6457073341841886,3.06,R,AL
12,0.3738479660005723,1.3708653996618068,1.744713365662379,1.39,S,AL
13,0.38532605943907433,1.4012784494992683,1.7866045089383427,1.81,S,AL
14,0.4888728232729352,0.75603327928136,1.2449061025542951,2.5,S,AL
15,0.21671720391335048,0.21093408032498132,0.42765128423833176,0.83,W,AL
16,0.24640097389219068,0.28124358218178286,0.5276445560739735,1.11,W,AL
17,0.27373097889659714,0.23765502871329428,0.5113860076098914,1.39,W,AL
18,0.43064662113383534,0.18461329416091024,0.6152599152947456,1.81,W,AL
19,0.3904519046137186,1.3410243238873847,1.7314762285011032,1.81,R,CC
20,0.4195570828396705,1.1849794705526446,1.604536553392315,2.5,R,CC
21,0.5288048731875998,1.3625529560020289,1.8913578291896287,3.06,R,CC
22,0.38329643739616104,1.2875503916117466,1.6708468290079077,1.39,S,CC
23,0.4599063813512694,1.1916124723430603,1.6515188536943297,1.81,S,CC
24,0.5790299592273597,0.9182264873995641,1.4972564466269238,2.5,S,CC
25,0.19618935145937466,0.26742056454163765,0.4636099160010123,0.83,W,CC
26,0.24075766948455563,0.2263094331511068,0.4670671026356624,1.11,W,CC
27,0.28507678555564075,0.215166415291019,0.5002432008466597,1.39,W,CC
28,0.3912051227086205,0.28106637160818154,0.672271494316802,1.81,W,CC
29,0.3673033828906794,1.1825013982317647,1.549804781122444,1.81,R,DG
30,0.450055468052551,1.1065437091521424,1.5565991772046934,2.5,R,DG
31,0.5252819142003319,1.1284100995577735,1.6536920137581053,3.06,R,DG
32,0.3291734156252188,1.1360499258020837,1.4652233414273026,1.39,S,DG
33,0.3945157523197749,1.1707751327570275,1.5652908850768024,1.81,S,DG
34,0.48933357193651694,1.032570827886823,1.52190439982334,2.5,S,DG
35,0.21138117946289348,0.3431694884447807,0.5545506679076742,0.83,W,DG
36,0.2671828078503927,0.2723835571356611,0.5395663649860538,1.11,W,DG
37,0.28465923420513384,0.22852751002014113,0.513186744225275,1.39,W,DG
38,0.41200469841032816,0.2547639693234625,0.6667686677337907,1.81,W,DG
39,0.2927655881075827,1.3936253428450551,1.686390930952638,1.81,R,DI
40,0.3573073323220482,1.3616222237385969,1.718929556060645,2.5,R,DI
41,0.41049863884977816,1.3422566893955379,1.752755328245316,3.06,R,DI
42,0.2611908386226275,1.265992406663276,1.5271832452859035,1.39,S,DI
43,0.28918598434064985,1.2630704133365191,1.552256397677169,1.81,S,DI
44,0.3461644277107695,1.1652604375029945,1.511424865213764,2.5,S,DI
45,0.15791743186088975,0.3164213790237394,0.47433881088462915,0.83,W,DI
46,0.1907890607598935,0.2853550190734743,0.4761440798333678,1.11,W,DI
47,0.3216319120243859,0.27324487797783786,0.5948767900022238,1.81,W,DI
48,0.37161219298727255,1.6957597394517305,2.067371932439003,1.81,R,EL
49,0.3970239597292219,1.3938591141806087,1.7908830739098307,2.5,R,EL
50,0.44537483882974127,1.3803351619682651,1.8257100007980065,3.06,R,EL
51,0.35396890084614874,2.2710463836129713,2.62501528445912,1.39,S,EL
52,0.34555060277331845,1.7731736723561182,2.118724275129437,1.81,S,EL
53,0.5396274746791004,1.296748320872768,1.8363757955518683,2.5,S,EL
54,0.16368296836623467,0.2679123765863483,0.431595344952583,0.83,W,EL
55,0.21905183330143013,0.16953550667910267,0.3885873399805328,1.11,W,EL
56,0.242906161870785,0.27147067463375535,0.5143768365045404,1.39,W,EL
57,0.3442606115071615,0.4157037312388238,0.7599643427459852,1.81,W,EL
58,0.28117730459363316,1.622435152370606,1.9036124569642392,1.81,R,GC
59,0.3534857710867895,1.3532816976203235,1.706767468707113,2.5,R,GC
60,0.44455405707861495,1.361472857856139,1.8060269149347539,3.06,R,GC
61,0.47731377869465524,1.3784761154492566,1.855789894143912,1.39,S,GC
62,0.41867925005374557,1.0902837352908565,1.508962985344602,1.81,S,GC
63,0.5131590463141953,1.0765168453113587,1.589675891625554,2.5,S,GC
64,0.18728443393174196,0.2916636666662077,0.4789481005979497,0.83,W,GC
65,0.24253269844079473,0.25562951696434005,0.4981622154051348,1.11,W,GC
66,0.2794152489617314,0.2825050244402227,0.5619202734019542,1.39,W,GC
67,0.39271440038230876,0.39624101424329516,0.7889554146256039,1.81,W,GC
68,0.3397112403274619,1.6566419597330926,1.9963532000605544,1.81,R,GH
69,0.41107148906027347,1.5927430190011433,2.0038145080614167,2.5,R,GH
70,0.5174192904112177,1.4112114835320115,1.9286307739432291,3.06,R,GH
71,0.3841630260045772,1.3082818564662502,1.6924448824708274,1.39,S,GH
72,0.3929737455119231,1.2403096565424614,1.6332834020543845,1.81,S,GH
73,0.652592934312983,1.0839443634973271,1.7365372978103102,2.5,S,GH
74,0.20389298652894344,0.42265334089028855,0.626546327419232,0.83,W,GH
75,0.22266688964404943,0.3257777913202028,0.5484446809642523,1.11,W,GH
76,0.2721378654440431,0.3302488333334996,0.6023866987775427,1.39,W,GH
77,0.35355775165323633,0.33263709372326233,0.6861948453764987,1.81,W,GH
78,0.42789037763403936,1.381556016763278,1.8094463943973174,2.5,R,GP
79,0.49321516598989057,1.3161671496902978,1.8093823156801885,3.06,R,GP
80,0.3749088388875131,1.5187227512724553,1.8936315901599683,1.39,S,GP
81,0.41160665999345697,1.4017181941314556,1.8133248541249125,1.81,S,GP
82,0.6007774771105953,1.098040189374704,1.6988176664852994,2.5,S,GP
83,0.17880956907966133,0.35073845261266007,0.5295480216923214,0.83,W,GP
84,0.2292249191065665,0.33182211429177183,0.5610470333983384,1.11,W,GP
85,0.2607228902435299,0.3431516163957229,0.6038745066392528,1.39,W,GP
86,0.35969887352336555,0.41340284054440507,0.7731017140677706,1.81,W,GP
87,0.29956782239507124,1.7904736686364005,2.0900414910314717,1.81,R,IT
88,0.361120420132853,1.565825306688005,1.926945726820858,2.5,R,IT
89,0.4477342816374371,1.5793910210549473,2.0271253026923843,3.06,R,IT
90,0.30214714760513317,1.4530846347118687,1.7552317823170018,1.39,S,IT
91,0.3036322897545031,1.4385507383609386,1.7421830281154418,1.81,S,IT
92,0.3830557765982928,1.1756078156373266,1.5586635922356193,2.5,S,IT
93,0.18364722338849745,0.33627369067581275,0.5199209140643102,0.83,W,IT
94,0.21475622690747315,0.32541197564165336,0.5401682025491266,1.11,W,IT
95,0.25556161870668387,0.343162098066694,0.5987237167733779,1.39,W,IT
96,0.33580375178425875,0.3614411679317328,0.6972449197159916,1.81,W,IT
97,0.3086592211760259,1.271915410596621,1.580574631772647,1.81,R,JC
98,0.39929568864008946,1.2334572812750648,1.6327529699151544,2.5,R,JC
99,0.5436881081850431,1.3575363592156653,1.9012244674007084,3.06,R,JC
100,0.34734641475435774,1.3765847480287265,1.7239311627830842,1.39,S,JC
101,0.3649300080335197,1.3440563658506475,1.708986373884167,1.81,S,JC
102,0.48329237714518253,1.1592642310894625,1.642556608234645,2.5,S,JC
103,0.18139467315175176,0.2101713193437538,0.39156599249550555,0.83,W,JC
104,0.20269105001108625,0.16695483422333182,0.3696458842344181,1.11,W,JC
105,0.24159195382002893,0.18967394329482484,0.43126589711485375,1.39,W,JC
106,0.33905313314832886,0.21796284157606985,0.5570159747243987,1.81,W,JC
107,0.36013601647380306,1.540319151514019,1.900455167987822,1.81,R,MO
108,0.42583105071663124,1.335356038547438,1.761187089264069,2.5,R,MO
109,0.49920520139821456,1.3742945890393912,1.8734997904376058,3.06,R,MO
110,0.38143667082617905,1.4519905231057078,1.833427193931887,1.39,S,MO
111,0.4508946124329641,1.262596689304101,1.713491301737065,2.5,S,MO
112,0.2311552900813904,0.3090098747205196,0.54016516480191,0.83,W,MO
113,0.2602387717796275,0.28890714403399537,0.5491459158136229,1.11,W,MO
114,0.29835953992780795,0.23493550055323165,0.5332950404810396,1.39,W,MO
115,0.37132346172101555,0.2960269211105176,0.6673503828315331,1.81,W,MO
116,0.34785836062668263,1.653080083330842,2.0009384439575246,1.81,R,MP
117,0.44113984165891784,1.5022529640100075,1.9433928056689254,2.5,R,MP
118,0.4932716907404154,1.4330159326715342,1.9262876234119495,3.06,R,MP
119,0.46664810280703034,1.356547122769523,1.8231952255765533,1.39,S,MP
120,0.5292870438568973,1.109743229167819,1.6390302730247164,1.81,S,MP
121,0.5883856172736985,1.1841284957326879,1.7725141130063864,2.5,S,MP
122,0.19381354828227582,0.3191514155327641,0.51296496381504,0.83,W,MP
123,0.2073630388523096,0.28744401952969756,0.49480705838200717,1.11,W,MP
124,0.2355427945898701,0.27842425010437427,0.5139670446942444,1.39,W,MP
125,0.3426189607446889,0.2249770076889169,0.5675959684336058,1.81,W,MP
126,0.35522737852861774,1.4992454392381,1.8544728177667178,1.81,R,NR
127,0.3969870027724076,1.3020334013854244,1.699020404157832,2.5,R,NR
128,0.4557696163630364,1.226290222072729,1.6820598384357655,3.06,R,NR
129,0.30217730036039536,1.114525815971116,1.4167031163315114,1.39,S,NR
130,0.345433299590363,0.8556801265272763,1.2011134261176393,1.81,S,NR
131,0.3924970205487908,0.8699310981025299,1.2624281186513207,2.5,S,NR
132,0.18449294604493227,0.33608607834257365,0.5205790243875059,0.83,W,NR
133,0.237118369229769,0.32467187947236914,0.5617902487021381,1.11,W,NR
134,0.2741589272168564,0.32511590682646274,0.5992748340433192,1.39,W,NR
135,0.321511486616779,0.2950001230737154,0.6165116096904943,1.81,W,NR
