var,vel,Contrast,A,B,Parametric,p-unc,p-corr,p-adjust
DutyFactor,1.81,gait,R,Str,False,0.0,0.002,bonf
DutyFactor,1.81,gait,R,Sld,False,0.497,1.0,bonf
DutyFactor,1.81,gait,R,W,False,0.0,0.002,bonf
DutyFactor,1.81,gait,Str,Sld,False,0.0,0.001,bonf
DutyFactor,1.81,gait,Str,W,False,0.0,0.0,bonf
DutyFactor,1.81,gait,Sld,W,False,0.0,0.0,bonf
dutyFlight,1.81,gait,R,Str,True,0.0,,
strideFreq,1.81,gait,R,W,False,0.0,0.0,bonf
strideFreq,1.81,gait,Str,W,False,0.0,0.0,bonf
strideFreq,1.81,gait,R,Str,False,0.0,0.001,bonf
strideLength,1.81,gait,R,Str,True,0.0,0.001,bonf
strideLength,1.81,gait,R,W,True,0.0,0.0,bonf
strideLength,1.81,gait,Str,W,True,0.0,0.0,bonf
